Task 7 - Basic visualization with R
…
        2025-09-25

library(ggpubr)
library(patchwork)
library(tidyverse)

1 1. Compare the distributions of the body heights of the two species from the ‘magic_guys.csv’ dataset graphically.

1.1 a. using the basic ‘hist’ function as well as ‘ggplot’ and ‘geom_histogram’ functions from the ggplot2 package. Optimize the plots for example by trying several different ‘breaks’. Note that ggplot2-based functions give you many more options for changing the visualization parameters, try some of them.

setwd("/Users/ninghe/Desktop/course/riken-ki")
data <- read_csv("./Week1/data/magic_guys.csv")
print(data)

# A tibble: 100 × 4
   uniqId species length weight
   <chr>  <chr>    <dbl>  <dbl>
 1 p1     jedi     175.    71.3
 2 p2     jedi     252.    70.8
 3 p3     jedi     230.    70.7
 4 p4     jedi     176.    80.4
 5 p5     jedi     213.    82  
 6 p6     jedi     112.    64.2
 7 p7     jedi      67.1   71.8
 8 p8     jedi     229.    75  
 9 p9     jedi     153.    74.3
10 p10    jedi     102.    72.8
# ℹ 90 more rows
…
